{
  "published": false,
  "validation": false,
  "state": "design",
  "location": "Nederland",
  "ngo": "NLRC",
  "title": {
    "en": "121 Digital Cash Aid Program"
  },
  "description": {
    "en": ""
  },
  "descLocation": {
    "en": "Location such and such."
  },
  "descHumanitarianObjective": {
    "en": "Humanitarian objective of program is such and such."
  },
  "descCashType": {
    "en": "Unconditional multi-purpose"
  },
  "startDate": "2020-01-01T12:00:00Z",
  "endDate": "2020-12-31T12:00:00Z",
  "currency": "EUR",
  "distributionFrequency": "month",
  "distributionDuration": 3,
  "fixedTransferValue": 35,
  "financialServiceProviders": [
    {
      "id": 1
    },
    {
      "id": 2
    }
  ],
  "inclusionCalculationType": "highestScoresX",
  "minimumScore": 0,
  "highestScoresX": 250,
  "meetingDocuments": {
    "en": "Document 1; Document 2; Document 3"
  },
  "notifications": {
    "en": {
      "registered": "This is a message from the Red Cross.\n\nWe have received your application for support.\n\nYou will receive another SMS message with more information within [variable].",
      "included": "This is a message from the Red Cross.\n\nYour application to the Red Cross program has been successful and confirmed.\n\nYou will receive another message about your first Albert Heijn supermarket voucher within [variable].",
      "rejected": "This is a message from the Red Cross.\n\nYour application to the program has not been successful and cannot be confirmed.\n\nIf you can, please reach out to us on WhatsApp for more information: [+31600000000]",
      "whatsappPayment": "This is a message from the Red Cross.\nYour €35 Albert Heijn supermarket voucher is ready to be sent.\nPlease reply “yes” to this message in order to receive the voucher.",
      "whatsappReply": "For further questions please contact this number",
      "whatsappVoucher": "This is a message from the Red Cross.\nYou are receiving this supermarket voucher because you are currently on the Loket waiting list for Shelter in Amsterdam and you applied for support from the Red Cross. The value of this voucher is €35. This amount can be spent at any Albert Heijn supermarket in the Netherlands.\nYou don’t have to spend everything at once. So keep this voucher in your phone and re-use it until the amount is finished.\nTo use the voucher, choose what you want to buy and let the cashier scan the voucher on your phone.\nMore information about the supermarket voucher is here: https://example.org"
    }
  },
  "phoneNumberPlaceholder": "+31 6 00 00 00 00",
  "customCriteria": [
    {
      "criterium": "nameFirst",
      "label": {
        "en": "Please enter your first name:"
      },
      "answerType": "text",
      "criteriumType": "standard",
      "options": null,
      "persistence": true,
      "scoring": {}
    },
    {
      "criterium": "nameLast",
      "label": {
        "en": "Please enter your last name:"
      },
      "answerType": "text",
      "criteriumType": "standard",
      "options": null,
      "persistence": true,
      "scoring": {}
    },
    {
      "criterium": "vnumber",
      "label": {
        "en": "Your V-number consists of 10 numbers. You can find it on your (former) permit of stay or on a letter from the IND.   <br><br>   If you can’t find your V-Number, please contact the Rode Kruis helpdesk via WhatsApp on: <a href='https://wa.me/31600000000' target='_blank' rel='noopener'>+31 6 00 00 00 00</a>   <br><br>   Please enter your V-Number:"
      },
      "placeholder": {
        "en": "0000000000"
      },
      "answerType": "numeric",
      "criteriumType": "standard",
      "options": null,
      "persistence": true,
      "scoring": {},
      "pattern": "^\\d{10}$"
    },
    {
      "criterium": "phoneNumber",
      "label": {
        "en": "Please share the phone number that you can receive an SMS on. We will use this phone number to inform you on the aid program.   <br><br> It should look like: <code>+31 6 00 00 00 00</code>"
      },
      "placeholder": {
        "en": "+31 6 00 00 00 00"
      },
      "answerType": "tel",
      "criteriumType": "standard",
      "options": null,
      "persistence": true,
      "scoring": {}
    }
  ]
}
