{
  "published": false,
  "validation": true,
  "state": "design",
  "location": "Location A",
  "ngo": "NGO A",
  "title": {
    "en": "Program 1"
  },
  "description": {
    "en": "Short description."
  },
  "descLocation": {
    "en": "Location such and such."
  },
  "descHumanitarianObjective": {
    "en": "Humanitarian objective of program is such and such."
  },
  "descCashType": {
    "en": "Unconditional multi-purpose"
  },
  "startDate": "2020-01-01T12:00:00Z",
  "endDate": "2020-12-31T12:00:00Z",
  "currency": "MWK",
  "distributionFrequency": "month",
  "distributionDuration": 3,
  "fixedTransferValue": 10,
  "financialServiceProviders": [
    {
      "id": 1
    },
    {
      "id": 2
    },
    {
      "id": 3
    },
    {
      "id": 4
    },
    {
      "id": 5
    },
    {
      "id": 6
    }
  ],
  "protectionServiceProviders": [
    {
      "id": 1
    },
    {
      "id": 2
    }
  ],
  "inclusionCalculationType": "highestScoresX",
  "minimumScore": 0,
  "highestScoresX": 250,
  "meetingDocuments": {
    "en": "Document 1; Document 2; Document 3"
  },
  "notifications": {
    "en": {
      "registered": "You have been successfully registered for this program.",
      "included": "You have been included in this program.",
      "rejected": "Unfortunately we have to inform you that you will not receive any (more) payments for this program. If you have questions, please contact us.",
      "whatsappPayment": "Please reply to this message within 24 hours to receive your voucher",
      "whatsappReply": "For further questions please contact this number"
    },
    "nl": {
      "included": "Je zit wel in het programma",
      "rejected": "Je zit niet in het programma"
    }
  },
  "phoneNumberPlaceholder": "+000 000 00 00",
  "customCriteria": [
    {
      "criterium": "name",
      "label": {
        "en": "My full name:"
      },
      "answerType": "text",
      "criteriumType": "standard",
      "options": null,
      "persistence": true,
      "scoring": {}
    },
    {
      "criterium": "dob",
      "label": {
        "en": "My date of birth: Format is day-month-year example: 31-12-1970"
      },
      "answerType": "date",
      "criteriumType": "standard",
      "options": null,
      "persistence": true,
      "scoring": {}
    },
    {
      "criterium": "question1",
      "label": {
        "en": "1. I am..."
      },
      "answerType": "dropdown",
      "criteriumType": "standard",
      "options": [
        {
          "option": "optionA",
          "label": {
            "en": "Option A"
          }
        },
        {
          "option": "optionB",
          "label": {
            "en": "Option B"
          }
        },
        {
          "option": "optionC",
          "label": {
            "en": "Option C"
          }
        }
      ],
      "scoring": {
        "optionA": 3,
        "optionB": 6,
        "optionC": 9
      }
    },
    {
      "criterium": "question2",
      "label": {
        "en": "2. I am.."
      },
      "answerType": "dropdown",
      "criteriumType": "standard",
      "options": [
        {
          "option": "optionA",
          "label": {
            "en": "Option A"
          }
        },
        {
          "option": "optionB",
          "label": {
            "en": "Option B"
          }
        },
        {
          "option": "optionC",
          "label": {
            "en": "Option C"
          }
        }
      ],
      "scoring": {
        "optionA": 3,
        "optionB": 6,
        "optionC": 9
      }
    },
    {
      "criterium": "question3",
      "label": {
        "en": "Question 3..."
      },
      "answerType": "numeric",
      "criteriumType": "standard",
      "options": null,
      "scoring": {
        "multiplier": 2
      }
    }
  ]
}
